…
<p class="">Isn't it great to keep things tidy? Casting from and into a tidy format makes it trivial for us to evaluate the output of one (or more) topic models.
</p>

### Comparing LDA output

<div class>
<p>We've only run a single LDA with a specific number of topics. The tidied output from that model, <code>lda_out_tidy</code>, has been loaded along with <code>dtm_twitter</code> in your workspace. Now run LDA with 3 topics and compare the outputs.</p>
<pre><code>&gt; lda_out_tidy

# A tibble: 35,928 x 3
   topic term        beta
   &lt;int&gt; &lt;chr&gt;      &lt;dbl&gt;
 1     1 flight   0.0343 
 2     1 time     0.0102 
 3     2 service  0.00882
 4     1 plane    0.00688
 5     1 trip     0.00614
 6     2 customer 0.00604
 7     1 delayed  0.00596
 8     2 airline  0.00593
 9     1 hours    0.00532
10     1 day      0.00499
# ... with 35,918 more rows
…
